June 7, 2000
================================================================
Accessory's Name	: bot-leela.pk3
Installation directory  : Quake III Arena/baseq3
Author                  : John "Ronin{Triad}" Fisher
Email Address           : jfi7056052@aol.com

Accessory's description	: Bot files for the Leela model





================================================================
* Construction *
Base                    : new



* How to use this accessory *

place the pk3 file into the baseq3 folder

* Copyright / Permissions *

QUAKE(R) and QUAKE II(R) are registered trademarks of id Software, Inc.

 


